-------------------------------------------------------------------------------
Test set: org.springframework.samples.petclinic.web.VetControllerTests
-------------------------------------------------------------------------------
Tests run: 3, Failures: 0, Errors: 0, Skipped: 0, Time elapsed: 0.638 s - in org.springframework.samples.petclinic.web.VetControllerTests
