-------------------------------------------------------------------------------
Test set: org.springframework.samples.petclinic.web.OwnerControllerTests
-------------------------------------------------------------------------------
Tests run: 11, Failures: 0, Errors: 0, Skipped: 0, Time elapsed: 0.993 s - in org.springframework.samples.petclinic.web.OwnerControllerTests
