<?xml version="1.0" encoding="UTF-8"?>
<testsuite xmlns:xsi="http://www.w3.org/2001/XMLSchema-instance" xsi:noNamespaceSchemaLocation="https://maven.apache.org/surefire/maven-surefire-plugin/xsd/surefire-test-report.xsd" name="org.springframework.samples.petclinic.web.OwnerControllerTests" time="0.993" tests="11" errors="0" skipped="0" failures="0">
  <properties>
    <property name="sun.desktop" value="gnome"/>
    <property name="awt.toolkit" value="sun.awt.X11.XToolkit"/>
    <property name="java.specification.version" value="11"/>
    <property name="sun.cpu.isalist" value=""/>
    <property name="sun.jnu.encoding" value="UTF-8"/>
    <property name="java.class.path" value="/home/vpelzers/Downloads/GitChallenge-master/target/test-classes:/home/vpelzers/Downloads/GitChallenge-master/target/classes:/home/vpelzers/.m2/repository/org/apache/tomcat/tomcat-servlet-api/9.0.46/tomcat-servlet-api-9.0.46.jar:/home/vpelzers/.m2/repository/org/apache/tomcat/tomcat-jasper-el/9.0.46/tomcat-jasper-el-9.0.46.jar:/home/vpelzers/.m2/repository/org/apache/tomcat/tomcat-el-api/9.0.46/tomcat-el-api-9.0.46.jar:/home/vpelzers/.m2/repository/org/apache/taglibs/taglibs-standard-jstlel/1.2.5/taglibs-standard-jstlel-1.2.5.jar:/home/vpelzers/.m2/repository/org/apache/taglibs/taglibs-standard-spec/1.2.5/taglibs-standard-spec-1.2.5.jar:/home/vpelzers/.m2/repository/org/apache/taglibs/taglibs-standard-impl/1.2.5/taglibs-standard-impl-1.2.5.jar:/home/vpelzers/.m2/repository/com/fasterxml/jackson/core/jackson-core/2.12.1/jackson-core-2.12.1.jar:/home/vpelzers/.m2/repository/com/fasterxml/jackson/core/jackson-databind/2.12.1/jackson-databind-2.12.1.jar:/home/vpelzers/.m2/repository/com/fasterxml/jackson/core/jackson-annotations/2.12.1/jackson-annotations-2.12.1.jar:/home/vpelzers/.m2/repository/com/jayway/jsonpath/json-path/2.5.0/json-path-2.5.0.jar:/home/vpelzers/.m2/repository/net/minidev/json-smart/2.3/json-smart-2.3.jar:/home/vpelzers/.m2/repository/net/minidev/accessors-smart/1.2/accessors-smart-1.2.jar:/home/vpelzers/.m2/repository/org/ow2/asm/asm/5.0.4/asm-5.0.4.jar:/home/vpelzers/.m2/repository/org/springframework/data/spring-data-jpa/2.5.1/spring-data-jpa-2.5.1.jar:/home/vpelzers/.m2/repository/org/springframework/data/spring-data-commons/2.5.1/spring-data-commons-2.5.1.jar:/home/vpelzers/.m2/repository/org/springframework/spring-orm/5.3.7/spring-orm-5.3.7.jar:/home/vpelzers/.m2/repository/org/springframework/spring-context/5.3.7/spring-context-5.3.7.jar:/home/vpelzers/.m2/repository/org/springframework/spring-aop/5.3.7/spring-aop-5.3.7.jar:/home/vpelzers/.m2/repository/org/springframework/spring-tx/5.3.7/spring-tx-5.3.7.jar:/home/vpelzers/.m2/repository/org/springframework/spring-beans/5.3.7/spring-beans-5.3.7.jar:/home/vpelzers/.m2/repository/org/springframework/spring-core/5.3.7/spring-core-5.3.7.jar:/home/vpelzers/.m2/repository/org/springframework/spring-jcl/5.3.7/spring-jcl-5.3.7.jar:/home/vpelzers/.m2/repository/org/springframework/spring-jdbc/5.3.8/spring-jdbc-5.3.8.jar:/home/vpelzers/.m2/repository/org/springframework/spring-webmvc/5.3.8/spring-webmvc-5.3.8.jar:/home/vpelzers/.m2/repository/org/springframework/spring-expression/5.3.8/spring-expression-5.3.8.jar:/home/vpelzers/.m2/repository/org/springframework/spring-web/5.3.8/spring-web-5.3.8.jar:/home/vpelzers/.m2/repository/org/springframework/spring-context-support/5.3.8/spring-context-support-5.3.8.jar:/home/vpelzers/.m2/repository/org/springframework/spring-oxm/5.3.8/spring-oxm-5.3.8.jar:/home/vpelzers/.m2/repository/org/aspectj/aspectjrt/1.9.5/aspectjrt-1.9.5.jar:/home/vpelzers/.m2/repository/org/aspectj/aspectjweaver/1.9.5/aspectjweaver-1.9.5.jar:/home/vpelzers/.m2/repository/org/apache/tomcat/tomcat-jdbc/9.0.46/tomcat-jdbc-9.0.46.jar:/home/vpelzers/.m2/repository/org/apache/tomcat/tomcat-juli/9.0.46/tomcat-juli-9.0.46.jar:/home/vpelzers/.m2/repository/org/slf4j/slf4j-api/1.7.30/slf4j-api-1.7.30.jar:/home/vpelzers/.m2/repository/ch/qos/logback/logback-classic/1.2.3/logback-classic-1.2.3.jar:/home/vpelzers/.m2/repository/ch/qos/logback/logback-core/1.2.3/logback-core-1.2.3.jar:/home/vpelzers/.m2/repository/org/hibernate/hibernate-entitymanager/5.4.31.Final/hibernate-entitymanager-5.4.31.Final.jar:/home/vpelzers/.m2/repository/org/jboss/logging/jboss-logging/3.4.1.Final/jboss-logging-3.4.1.Final.jar:/home/vpelzers/.m2/repository/org/hibernate/hibernate-core/5.4.31.Final/hibernate-core-5.4.31.Final.jar:/home/vpelzers/.m2/repository/org/javassist/javassist/3.27.0-GA/javassist-3.27.0-GA.jar:/home/vpelzers/.m2/repository/antlr/antlr/2.7.7/antlr-2.7.7.jar:/home/vpelzers/.m2/repository/org/jboss/jandex/2.2.3.Final/jandex-2.2.3.Final.jar:/home/vpelzers/.m2/repository/org/dom4j/dom4j/2.1.3/dom4j-2.1.3.jar:/home/vpelzers/.m2/repository/org/hibernate/common/hibernate-commons-annotations/5.1.2.Final/hibernate-commons-annotations-5.1.2.Final.jar:/home/vpelzers/.m2/repository/javax/persistence/javax.persistence-api/2.2/javax.persistence-api-2.2.jar:/home/vpelzers/.m2/repository/net/bytebuddy/byte-buddy/1.10.21/byte-buddy-1.10.21.jar:/home/vpelzers/.m2/repository/org/jboss/spec/javax/transaction/jboss-transaction-api_1.2_spec/1.1.1.Final/jboss-transaction-api_1.2_spec-1.1.1.Final.jar:/home/vpelzers/.m2/repository/org/hibernate/validator/hibernate-validator/6.2.0.Final/hibernate-validator-6.2.0.Final.jar:/home/vpelzers/.m2/repository/jakarta/validation/jakarta.validation-api/2.0.2/jakarta.validation-api-2.0.2.jar:/home/vpelzers/.m2/repository/com/fasterxml/classmate/1.5.1/classmate-1.5.1.jar:/home/vpelzers/.m2/repository/org/hibernate/hibernate-ehcache/5.4.31.Final/hibernate-ehcache-5.4.31.Final.jar:/home/vpelzers/.m2/repository/net/sf/ehcache/ehcache/2.10.6/ehcache-2.10.6.jar:/home/vpelzers/.m2/repository/org/webjars/jquery/3.5.1/jquery-3.5.1.jar:/home/vpelzers/.m2/repository/org/webjars/jquery-ui/1.12.1/jquery-ui-1.12.1.jar:/home/vpelzers/.m2/repository/org/webjars/bootstrap/3.3.6/bootstrap-3.3.6.jar:/home/vpelzers/.m2/repository/org/springframework/spring-test/5.3.8/spring-test-5.3.8.jar:/home/vpelzers/.m2/repository/org/junit/jupiter/junit-jupiter-engine/5.7.2/junit-jupiter-engine-5.7.2.jar:/home/vpelzers/.m2/repository/org/apiguardian/apiguardian-api/1.1.0/apiguardian-api-1.1.0.jar:/home/vpelzers/.m2/repository/org/junit/platform/junit-platform-engine/1.7.2/junit-platform-engine-1.7.2.jar:/home/vpelzers/.m2/repository/org/opentest4j/opentest4j/1.2.0/opentest4j-1.2.0.jar:/home/vpelzers/.m2/repository/org/junit/platform/junit-platform-commons/1.7.2/junit-platform-commons-1.7.2.jar:/home/vpelzers/.m2/repository/org/junit/jupiter/junit-jupiter-api/5.7.2/junit-jupiter-api-5.7.2.jar:/home/vpelzers/.m2/repository/org/assertj/assertj-core/3.19.0/assertj-core-3.19.0.jar:/home/vpelzers/.m2/repository/org/mockito/mockito-core/3.9.0/mockito-core-3.9.0.jar:/home/vpelzers/.m2/repository/net/bytebuddy/byte-buddy-agent/1.10.20/byte-buddy-agent-1.10.20.jar:/home/vpelzers/.m2/repository/org/objenesis/objenesis/3.2/objenesis-3.2.jar:/home/vpelzers/.m2/repository/org/mockito/mockito-junit-jupiter/3.9.0/mockito-junit-jupiter-3.9.0.jar:/home/vpelzers/.m2/repository/org/hamcrest/hamcrest/2.2/hamcrest-2.2.jar:/home/vpelzers/.m2/repository/javax/xml/bind/jaxb-api/2.3.1/jaxb-api-2.3.1.jar:/home/vpelzers/.m2/repository/org/glassfish/jaxb/jaxb-runtime/2.3.4/jaxb-runtime-2.3.4.jar:/home/vpelzers/.m2/repository/jakarta/xml/bind/jakarta.xml.bind-api/2.3.3/jakarta.xml.bind-api-2.3.3.jar:/home/vpelzers/.m2/repository/org/glassfish/jaxb/txw2/2.3.4/txw2-2.3.4.jar:/home/vpelzers/.m2/repository/com/sun/istack/istack-commons-runtime/3.0.12/istack-commons-runtime-3.0.12.jar:/home/vpelzers/.m2/repository/com/sun/activation/jakarta.activation/1.2.2/jakarta.activation-1.2.2.jar:/home/vpelzers/.m2/repository/javax/activation/javax.activation-api/1.2.0/javax.activation-api-1.2.0.jar:/home/vpelzers/.m2/repository/com/h2database/h2/1.4.200/h2-1.4.200.jar:"/>
    <property name="java.vm.vendor" value="Ubuntu"/>
    <property name="sun.arch.data.model" value="64"/>
    <property name="java.vendor.url" value="https://ubuntu.com/"/>
    <property name="user.timezone" value=""/>
    <property name="java.vm.specification.version" value="11"/>
    <property name="os.name" value="Linux"/>
    <property name="sun.java.launcher" value="SUN_STANDARD"/>
    <property name="user.country" value="US"/>
    <property name="sun.boot.library.path" value="/usr/lib/jvm/java-11-openjdk-amd64/lib"/>
    <property name="sun.java.command" value="/home/vpelzers/Downloads/GitChallenge-master/target/surefire/surefirebooter10531146863271362323.jar /home/vpelzers/Downloads/GitChallenge-master/target/surefire 2023-05-04T09-10-20_909-jvmRun1 surefire9407336893754900031tmp surefire_015901768447328326887tmp"/>
    <property name="jdk.debug" value="release"/>
    <property name="surefire.test.class.path" value="/home/vpelzers/Downloads/GitChallenge-master/target/test-classes:/home/vpelzers/Downloads/GitChallenge-master/target/classes:/home/vpelzers/.m2/repository/org/apache/tomcat/tomcat-servlet-api/9.0.46/tomcat-servlet-api-9.0.46.jar:/home/vpelzers/.m2/repository/org/apache/tomcat/tomcat-jasper-el/9.0.46/tomcat-jasper-el-9.0.46.jar:/home/vpelzers/.m2/repository/org/apache/tomcat/tomcat-el-api/9.0.46/tomcat-el-api-9.0.46.jar:/home/vpelzers/.m2/repository/org/apache/taglibs/taglibs-standard-jstlel/1.2.5/taglibs-standard-jstlel-1.2.5.jar:/home/vpelzers/.m2/repository/org/apache/taglibs/taglibs-standard-spec/1.2.5/taglibs-standard-spec-1.2.5.jar:/home/vpelzers/.m2/repository/org/apache/taglibs/taglibs-standard-impl/1.2.5/taglibs-standard-impl-1.2.5.jar:/home/vpelzers/.m2/repository/com/fasterxml/jackson/core/jackson-core/2.12.1/jackson-core-2.12.1.jar:/home/vpelzers/.m2/repository/com/fasterxml/jackson/core/jackson-databind/2.12.1/jackson-databind-2.12.1.jar:/home/vpelzers/.m2/repository/com/fasterxml/jackson/core/jackson-annotations/2.12.1/jackson-annotations-2.12.1.jar:/home/vpelzers/.m2/repository/com/jayway/jsonpath/json-path/2.5.0/json-path-2.5.0.jar:/home/vpelzers/.m2/repository/net/minidev/json-smart/2.3/json-smart-2.3.jar:/home/vpelzers/.m2/repository/net/minidev/accessors-smart/1.2/accessors-smart-1.2.jar:/home/vpelzers/.m2/repository/org/ow2/asm/asm/5.0.4/asm-5.0.4.jar:/home/vpelzers/.m2/repository/org/springframework/data/spring-data-jpa/2.5.1/spring-data-jpa-2.5.1.jar:/home/vpelzers/.m2/repository/org/springframework/data/spring-data-commons/2.5.1/spring-data-commons-2.5.1.jar:/home/vpelzers/.m2/repository/org/springframework/spring-orm/5.3.7/spring-orm-5.3.7.jar:/home/vpelzers/.m2/repository/org/springframework/spring-context/5.3.7/spring-context-5.3.7.jar:/home/vpelzers/.m2/repository/org/springframework/spring-aop/5.3.7/spring-aop-5.3.7.jar:/home/vpelzers/.m2/repository/org/springframework/spring-tx/5.3.7/spring-tx-5.3.7.jar:/home/vpelzers/.m2/repository/org/springframework/spring-beans/5.3.7/spring-beans-5.3.7.jar:/home/vpelzers/.m2/repository/org/springframework/spring-core/5.3.7/spring-core-5.3.7.jar:/home/vpelzers/.m2/repository/org/springframework/spring-jcl/5.3.7/spring-jcl-5.3.7.jar:/home/vpelzers/.m2/repository/org/springframework/spring-jdbc/5.3.8/spring-jdbc-5.3.8.jar:/home/vpelzers/.m2/repository/org/springframework/spring-webmvc/5.3.8/spring-webmvc-5.3.8.jar:/home/vpelzers/.m2/repository/org/springframework/spring-expression/5.3.8/spring-expression-5.3.8.jar:/home/vpelzers/.m2/repository/org/springframework/spring-web/5.3.8/spring-web-5.3.8.jar:/home/vpelzers/.m2/repository/org/springframework/spring-context-support/5.3.8/spring-context-support-5.3.8.jar:/home/vpelzers/.m2/repository/org/springframework/spring-oxm/5.3.8/spring-oxm-5.3.8.jar:/home/vpelzers/.m2/repository/org/aspectj/aspectjrt/1.9.5/aspectjrt-1.9.5.jar:/home/vpelzers/.m2/repository/org/aspectj/aspectjweaver/1.9.5/aspectjweaver-1.9.5.jar:/home/vpelzers/.m2/repository/org/apache/tomcat/tomcat-jdbc/9.0.46/tomcat-jdbc-9.0.46.jar:/home/vpelzers/.m2/repository/org/apache/tomcat/tomcat-juli/9.0.46/tomcat-juli-9.0.46.jar:/home/vpelzers/.m2/repository/org/slf4j/slf4j-api/1.7.30/slf4j-api-1.7.30.jar:/home/vpelzers/.m2/repository/ch/qos/logback/logback-classic/1.2.3/logback-classic-1.2.3.jar:/home/vpelzers/.m2/repository/ch/qos/logback/logback-core/1.2.3/logback-core-1.2.3.jar:/home/vpelzers/.m2/repository/org/hibernate/hibernate-entitymanager/5.4.31.Final/hibernate-entitymanager-5.4.31.Final.jar:/home/vpelzers/.m2/repository/org/jboss/logging/jboss-logging/3.4.1.Final/jboss-logging-3.4.1.Final.jar:/home/vpelzers/.m2/repository/org/hibernate/hibernate-core/5.4.31.Final/hibernate-core-5.4.31.Final.jar:/home/vpelzers/.m2/repository/org/javassist/javassist/3.27.0-GA/javassist-3.27.0-GA.jar:/home/vpelzers/.m2/repository/antlr/antlr/2.7.7/antlr-2.7.7.jar:/home/vpelzers/.m2/repository/org/jboss/jandex/2.2.3.Final/jandex-2.2.3.Final.jar:/home/vpelzers/.m2/repository/org/dom4j/dom4j/2.1.3/dom4j-2.1.3.jar:/home/vpelzers/.m2/repository/org/hibernate/common/hibernate-commons-annotations/5.1.2.Final/hibernate-commons-annotations-5.1.2.Final.jar:/home/vpelzers/.m2/repository/javax/persistence/javax.persistence-api/2.2/javax.persistence-api-2.2.jar:/home/vpelzers/.m2/repository/net/bytebuddy/byte-buddy/1.10.21/byte-buddy-1.10.21.jar:/home/vpelzers/.m2/repository/org/jboss/spec/javax/transaction/jboss-transaction-api_1.2_spec/1.1.1.Final/jboss-transaction-api_1.2_spec-1.1.1.Final.jar:/home/vpelzers/.m2/repository/org/hibernate/validator/hibernate-validator/6.2.0.Final/hibernate-validator-6.2.0.Final.jar:/home/vpelzers/.m2/repository/jakarta/validation/jakarta.validation-api/2.0.2/jakarta.validation-api-2.0.2.jar:/home/vpelzers/.m2/repository/com/fasterxml/classmate/1.5.1/classmate-1.5.1.jar:/home/vpelzers/.m2/repository/org/hibernate/hibernate-ehcache/5.4.31.Final/hibernate-ehcache-5.4.31.Final.jar:/home/vpelzers/.m2/repository/net/sf/ehcache/ehcache/2.10.6/ehcache-2.10.6.jar:/home/vpelzers/.m2/repository/org/webjars/jquery/3.5.1/jquery-3.5.1.jar:/home/vpelzers/.m2/repository/org/webjars/jquery-ui/1.12.1/jquery-ui-1.12.1.jar:/home/vpelzers/.m2/repository/org/webjars/bootstrap/3.3.6/bootstrap-3.3.6.jar:/home/vpelzers/.m2/repository/org/springframework/spring-test/5.3.8/spring-test-5.3.8.jar:/home/vpelzers/.m2/repository/org/junit/jupiter/junit-jupiter-engine/5.7.2/junit-jupiter-engine-5.7.2.jar:/home/vpelzers/.m2/repository/org/apiguardian/apiguardian-api/1.1.0/apiguardian-api-1.1.0.jar:/home/vpelzers/.m2/repository/org/junit/platform/junit-platform-engine/1.7.2/junit-platform-engine-1.7.2.jar:/home/vpelzers/.m2/repository/org/opentest4j/opentest4j/1.2.0/opentest4j-1.2.0.jar:/home/vpelzers/.m2/repository/org/junit/platform/junit-platform-commons/1.7.2/junit-platform-commons-1.7.2.jar:/home/vpelzers/.m2/repository/org/junit/jupiter/junit-jupiter-api/5.7.2/junit-jupiter-api-5.7.2.jar:/home/vpelzers/.m2/repository/org/assertj/assertj-core/3.19.0/assertj-core-3.19.0.jar:/home/vpelzers/.m2/repository/org/mockito/mockito-core/3.9.0/mockito-core-3.9.0.jar:/home/vpelzers/.m2/repository/net/bytebuddy/byte-buddy-agent/1.10.20/byte-buddy-agent-1.10.20.jar:/home/vpelzers/.m2/repository/org/objenesis/objenesis/3.2/objenesis-3.2.jar:/home/vpelzers/.m2/repository/org/mockito/mockito-junit-jupiter/3.9.0/mockito-junit-jupiter-3.9.0.jar:/home/vpelzers/.m2/repository/org/hamcrest/hamcrest/2.2/hamcrest-2.2.jar:/home/vpelzers/.m2/repository/javax/xml/bind/jaxb-api/2.3.1/jaxb-api-2.3.1.jar:/home/vpelzers/.m2/repository/org/glassfish/jaxb/jaxb-runtime/2.3.4/jaxb-runtime-2.3.4.jar:/home/vpelzers/.m2/repository/jakarta/xml/bind/jakarta.xml.bind-api/2.3.3/jakarta.xml.bind-api-2.3.3.jar:/home/vpelzers/.m2/repository/org/glassfish/jaxb/txw2/2.3.4/txw2-2.3.4.jar:/home/vpelzers/.m2/repository/com/sun/istack/istack-commons-runtime/3.0.12/istack-commons-runtime-3.0.12.jar:/home/vpelzers/.m2/repository/com/sun/activation/jakarta.activation/1.2.2/jakarta.activation-1.2.2.jar:/home/vpelzers/.m2/repository/javax/activation/javax.activation-api/1.2.0/javax.activation-api-1.2.0.jar:/home/vpelzers/.m2/repository/com/h2database/h2/1.4.200/h2-1.4.200.jar:"/>
    <property name="sun.cpu.endian" value="little"/>
    <property name="user.home" value="/home/vpelzers"/>
    <property name="user.language" value="en"/>
    <property name="java.specification.vendor" value="Oracle Corporation"/>
    <property name="java.version.date" value="2023-01-17"/>
    <property name="java.home" value="/usr/lib/jvm/java-11-openjdk-amd64"/>
    <property name="file.separator" value="/"/>
    <property name="basedir" value="/home/vpelzers/Downloads/GitChallenge-master"/>
    <property name="java.vm.compressedOopsMode" value="Zero based"/>
    <property name="line.separator" value="&#10;"/>
    <property name="java.specification.name" value="Java Platform API Specification"/>
    <property name="java.vm.specification.vendor" value="Oracle Corporation"/>
    <property name="java.awt.graphicsenv" value="sun.awt.X11GraphicsEnvironment"/>
    <property name="surefire.real.class.path" value="/home/vpelzers/Downloads/GitChallenge-master/target/surefire/surefirebooter10531146863271362323.jar"/>
    <property name="sun.management.compiler" value="HotSpot 64-Bit Tiered Compilers"/>
    <property name="java.runtime.version" value="11.0.18+10-post-Ubuntu-0ubuntu122.04"/>
    <property name="user.name" value="vpelzers"/>
    <property name="path.separator" value=":"/>
    <property name="os.version" value="5.19.0-41-generic"/>
    <property name="java.runtime.name" value="OpenJDK Runtime Environment"/>
    <property name="file.encoding" value="UTF-8"/>
    <property name="java.vm.name" value="OpenJDK 64-Bit Server VM"/>
    <property name="localRepository" value="/home/vpelzers/.m2/repository"/>
    <property name="java.vendor.url.bug" value="https://bugs.launchpad.net/ubuntu/+source/openjdk-lts"/>
    <property name="java.io.tmpdir" value="/tmp"/>
    <property name="java.version" value="11.0.18"/>
    <property name="user.dir" value="/home/vpelzers/Downloads/GitChallenge-master"/>
    <property name="os.arch" value="amd64"/>
    <property name="java.vm.specification.name" value="Java Virtual Machine Specification"/>
    <property name="java.awt.printerjob" value="sun.print.PSPrinterJob"/>
    <property name="sun.os.patch.level" value="unknown"/>
    <property name="java.library.path" value="/usr/java/packages/lib:/usr/lib/x86_64-linux-gnu/jni:/lib/x86_64-linux-gnu:/usr/lib/x86_64-linux-gnu:/usr/lib/jni:/lib:/usr/lib"/>
    <property name="java.vm.info" value="mixed mode, sharing"/>
    <property name="java.vendor" value="Ubuntu"/>
    <property name="java.vm.version" value="11.0.18+10-post-Ubuntu-0ubuntu122.04"/>
    <property name="sun.io.unicode.encoding" value="UnicodeLittle"/>
    <property name="java.class.version" value="55.0"/>
  </properties>
  <testcase name="testProcessUpdateOwnerFormHasErrors" classname="org.springframework.samples.petclinic.web.OwnerControllerTests" time="0.156"/>
  <testcase name="testProcessCreationFormSuccess" classname="org.springframework.samples.petclinic.web.OwnerControllerTests" time="0.054"/>
  <testcase name="testInitFindForm" classname="org.springframework.samples.petclinic.web.OwnerControllerTests" time="0.034"/>
  <testcase name="testShowOwner" classname="org.springframework.samples.petclinic.web.OwnerControllerTests" time="0.068"/>
  <testcase name="testInitUpdateOwnerForm" classname="org.springframework.samples.petclinic.web.OwnerControllerTests" time="0.05"/>
  <testcase name="testInitCreationForm" classname="org.springframework.samples.petclinic.web.OwnerControllerTests" time="0.044"/>
  <testcase name="testProcessFindFormByLastName" classname="org.springframework.samples.petclinic.web.OwnerControllerTests" time="0.038"/>
  <testcase name="testProcessFindFormNoOwnersFound" classname="org.springframework.samples.petclinic.web.OwnerControllerTests" time="0.03"/>
  <testcase name="testProcessFindFormSuccess" classname="org.springframework.samples.petclinic.web.OwnerControllerTests" time="0.06"/>
  <testcase name="testProcessUpdateOwnerFormSuccess" classname="org.springframework.samples.petclinic.web.OwnerControllerTests" time="0.064"/>
  <testcase name="testProcessCreationFormHasErrors" classname="org.springframework.samples.petclinic.web.OwnerControllerTests" time="0.048"/>
</testsuite>